%!PS-Adobe-3.0 EPSF-3.0
%%Creator: cairo 1.14.6 (http://cairographics.org)
%%CreationDate: Fri Mar  1 19:49:37 2019
%%Pages: 1
%%DocumentData: Clean7Bit
%%LanguageLevel: 2
%%BoundingBox: 0 -1 174 186
%%EndComments
%%BeginProlog
save
50 dict begin
/q { gsave } bind def
/Q { grestore } bind def
/cm { 6 array astore concat } bind def
/w { setlinewidth } bind def
/J { setlinecap } bind def
/j { setlinejoin } bind def
/M { setmiterlimit } bind def
/d { setdash } bind def
/m { moveto } bind def
/l { lineto } bind def
/c { curveto } bind def
/h { closepath } bind def
/re { exch dup neg 3 1 roll 5 3 roll moveto 0 rlineto
      0 exch rlineto 0 rlineto closepath } bind def
/S { stroke } bind def
/f { fill } bind def
/f* { eofill } bind def
/n { newpath } bind def
/W { clip } bind def
/W* { eoclip } bind def
/BT { } bind def
/ET { } bind def
/pdfmark where { pop globaldict /?pdfmark /exec load put }
    { globaldict begin /?pdfmark /pop load def /pdfmark
    /cleartomark load def end } ifelse
/BDC { mark 3 1 roll /BDC pdfmark } bind def
/EMC { mark /EMC pdfmark } bind def
/cairo_store_point { /cairo_point_y exch def /cairo_point_x exch def } def
/Tj { show currentpoint cairo_store_point } bind def
/TJ {
  {
    dup
    type /stringtype eq
    { show } { -0.001 mul 0 cairo_font_matrix dtransform rmoveto } ifelse
  } forall
  currentpoint cairo_store_point
} bind def
/cairo_selectfont { cairo_font_matrix aload pop pop pop 0 0 6 array astore
    cairo_font exch selectfont cairo_point_x cairo_point_y moveto } bind def
/Tf { pop /cairo_font exch def /cairo_font_matrix where
      { pop cairo_selectfont } if } bind def
/Td { matrix translate cairo_font_matrix matrix concatmatrix dup
      /cairo_font_matrix exch def dup 4 get exch 5 get cairo_store_point
      /cairo_font where { pop cairo_selectfont } if } bind def
/Tm { 2 copy 8 2 roll 6 array astore /cairo_font_matrix exch def
      cairo_store_point /cairo_font where { pop cairo_selectfont } if } bind def
/g { setgray } bind def
/rg { setrgbcolor } bind def
/d1 { setcachedevice } bind def
%%EndProlog
%%BeginSetup
%%EndSetup
%%Page: 1 1
%%BeginPageSetup
%%PageBoundingBox: 0 -1 174 186
%%EndPageSetup
q 0 -1 174 187 rectclip q
0.188235 0.533333 0.831373 rg
169.445 74.338 m 166.902 61.245 146.652 46.916 123.395 44.139 c 111.27 
42.694 99.328 41.362 86.598 41.948 c 65.773 42.901 49.344 46.916 49.344 
46.916 c 49.344 44.889 49.469 42.959 49.719 41.155 c 52.426 20.604 70.098
 19.373 86.832 18.799 c 103.727 18.221 118.77 22.963 118.77 22.963 c 119.461
 7.694 l 119.461 7.694 107.645 1.346 86.598 0.182 c 74.988 -0.459 60.578
 0.471 43.793 4.916 c 7.387 14.553 1.125 53.358 0.168 92.737 c -0.125 104.424
 0.055 115.452 0.055 124.67 c 0.055 164.932 26.438 176.737 26.438 176.737
 c 39.738 182.846 62.562 185.413 86.293 185.608 c 86.875 185.608 l 110.605
 185.413 133.445 182.846 146.746 176.737 c 146.746 176.737 173.125 164.932
 173.125 124.67 c 173.125 124.67 173.457 94.963 169.445 74.338 c f
1 g
142.008 121.545 m 142.008 72.791 l 122.691 72.791 l 122.691 120.112 l 122.691
 130.088 118.496 135.151 110.102 135.151 c 100.82 135.151 96.168 129.147
 96.168 117.268 c 96.168 91.37 l 76.965 91.37 l 76.965 117.268 l 76.965 
129.147 72.312 135.151 63.031 135.151 c 54.637 135.151 50.438 130.088 50.438
 120.112 c 50.438 72.791 l 31.125 72.791 l 31.125 121.545 l 31.125 131.51
 33.66 139.428 38.758 145.288 c 44.012 151.143 50.895 154.147 59.438 154.147
 c 69.32 154.147 76.805 150.35 81.754 142.748 c 86.566 134.686 l 91.379 
142.748 l 96.324 150.35 103.812 154.147 113.695 154.147 c 122.238 154.147
 129.121 151.143 134.375 145.288 c 139.473 139.428 142.008 131.51 142.008
 121.545 c f
Q Q
showpage
%%Trailer
end restore
%%EOF
